Faixa Etaria,2000,2001,2002,2003,2004,2005,2006,2007,2008,2009,2010,2011,2012,2013,2014,2015,2016,2017,2018,2019
Menor 1,68199,61943,58916,57540,54183,51544,48332,45370,44100,42642,39870,39716,39123,38966,38432,37501,36350,36223,35864,35293
1 a 4 ,11271,10930,10177,10306,9468,8703,8523,7882,7616,7391,7007,6659,6342,6337,6105,5595,6212,5918,5869,5822
5 a 9 ,5364,5195,5323,5207,5021,4793,4917,4653,4664,4440,4160,4118,3952,3723,3629,3266,3297,3256,3072,3166
10 a 14 ,6295,6211,6218,5946,5884,5830,5838,5711,5783,5758,5721,5538,5710,5425,5325,4893,4877,4609,4363,4224
15 a 19 ,19263,19508,19987,19517,19137,18934,18902,18742,18881,18685,18950,19736,21269,21442,22120,21356,21788,21511,19102,16701
20 a 29 ,52038,52154,54726,54816,54145,52819,53497,54346,55518,57207,56603,55719,56536,55105,56172,54336,55643,55755,51952,48862
30 a 39 ,61751,61960,61664,60536,60409,58592,58446,58984,59720,61439,62005,62814,64540,64395,65022,64190,64864,63776,61151,59984
40 a 49 ,85756,87047,87890,89046,90779,89435,89953,90472,92746,93201,93398,94555,93542,93543,91217,90993,92650,89177,88826,88957
50 a 59 ,110396,113408,115403,117862,123087,122685,126565,129421,134221,137845,141676,145253,145382,149282,149226,152331,157797,153293,154401,155434
60 a 69 ,153713,154886,156492,159474,164532,160659,163732,166204,172352,173836,180481,187131,190143,195760,199924,209620,221752,223284,229156,236822
70 a 79 ,184306,190220,196364,202321,208161,203906,211065,213738,217873,223566,230893,235686,236172,243073,246802,256180,265220,267012,271919,282040
80  e mais,183965,193719,204931,215335,225414,225450,238120,248546,259487,273044,292216,309423,314689,329582,339456,360634,376145,385882,388271,410138
Idade ignorada,4369,4311,4716,4434,3853,3477,3801,3755,4046,4034,3967,4150,3766,3841,3609,3280,3179,2967,2773,2358
